wave.vcd
$version Generated by VerilatedVcd $end
$date Sun Nov  9 13:23:37 2025 $end
$timescale 1ps $end

 $scope module TOP $end
  $var wire  1 ) clk $end
  $var wire 32 ( data_in [31:0] $end
  $var wire 32 + data_out [31:0] $end
  $var wire  1 * rst $end
  $scope module fixed_sma $end
   $var wire 32 # Q[0] [31:0] $end
   $var wire 32 $ Q[1] [31:0] $end
   $var wire 32 % Q[2] [31:0] $end
   $var wire 32 & Q[3] [31:0] $end
   $var wire  1 ) clk $end
   $var wire 32 ( data_in [31:0] $end
   $var wire 32 + data_out [31:0] $end
   $var wire  1 * rst $end
   $scope module unnamedblk1 $end
    $var wire 32 ' i [31:0] $end
   $upscope $end
  $upscope $end
 $upscope $end
$enddefinitions $end


#0
b00000000000000000000000000000000 #
b00000000000000000000000000000000 $
b00000000000000000000000000000000 %
b00000000000000000000000000000000 &
b00000000000000000000000000000000 '
b00000000000000000000000000000000 (
1)
1*
b00000000000000000000000000000000 +
#1
0)
#2
b00000000000000000000000000000100 '
1)
#3
0)
#4
b00000000000000000000000000000001 #
b00000000000000000000000000000001 (
1)
0*
#5
0)
#6
b00000000000000000000000000000010 #
b00000000000000000000000000000001 $
b00000000000000000000000000000010 (
1)
#7
0)
#8
b00000000000000000000000000000001 #
b00000000000000000000000000000010 $
b00000000000000000000000000000001 %
b00000000000000000000000000000001 (
1)
b00000000000000000000000000000001 +
#9
0)
#10
b00000000000000000000000000000010 #
b00000000000000000000000000000001 $
b00000000000000000000000000000010 %
b00000000000000000000000000000001 &
b00000000000000000000000000000010 (
1)
#11
0)
#12
b00000000000000000000000000000001 #
b00000000000000000000000000000010 $
b00000000000000000000000000000001 %
b00000000000000000000000000000010 &
b00000000000000000000000000000001 (
1)
#13
0)
#14
b00000000000000000000000000000010 #
b00000000000000000000000000000001 $
b00000000000000000000000000000010 %
b00000000000000000000000000000001 &
b00000000000000000000000000000010 (
1)
#15
0)
#16
b00000000000000000000000000000001 #
b00000000000000000000000000000010 $
b00000000000000000000000000000001 %
b00000000000000000000000000000010 &
b00000000000000000000000000000001 (
1)
#17
0)
#18
b00000000000000000000000000000010 #
b00000000000000000000000000000001 $
b00000000000000000000000000000010 %
b00000000000000000000000000000001 &
b00000000000000000000000000000010 (
1)
#19
0)
#20
b00000000000000000000000000000001 #
b00000000000000000000000000000010 $
b00000000000000000000000000000001 %
b00000000000000000000000000000010 &
b00000000000000000000000000000001 (
1)
#21
0)
#22
b00000000000000000000000000000010 #
b00000000000000000000000000000001 $
b00000000000000000000000000000010 %
b00000000000000000000000000000001 &
b00000000000000000000000000000010 (
1)
#23
0)
#24
b00000000000000000000000000000001 #
b00000000000000000000000000000010 $
b00000000000000000000000000000001 %
b00000000000000000000000000000010 &
b00000000000000000000000000000001 (
1)
#25
0)
#26
b00000000000000000000000000000010 #
b00000000000000000000000000000001 $
b00000000000000000000000000000010 %
b00000000000000000000000000000001 &
b00000000000000000000000000000010 (
1)
#27
0)
#28
b00000000000000000000000000000001 #
b00000000000000000000000000000010 $
b00000000000000000000000000000001 %
b00000000000000000000000000000010 &
b00000000000000000000000000000001 (
1)
#29
0)
#30
b00000000000000000000000000000010 #
b00000000000000000000000000000001 $
b00000000000000000000000000000010 %
b00000000000000000000000000000001 &
b00000000000000000000000000000010 (
1)
#31
0)
#32
b00000000000000000000000000000001 #
b00000000000000000000000000000010 $
b00000000000000000000000000000001 %
b00000000000000000000000000000010 &
b00000000000000000000000000000001 (
1)
#33
0)
#34
b00000000000000000000000000000010 #
b00000000000000000000000000000001 $
b00000000000000000000000000000010 %
b00000000000000000000000000000001 &
b00000000000000000000000000000010 (
1)
#35
0)
#36
b00000000000000000000000000000001 #
b00000000000000000000000000000010 $
b00000000000000000000000000000001 %
b00000000000000000000000000000010 &
b00000000000000000000000000000001 (
1)
#37
0)
#38
b00000000000000000000000000000010 #
b00000000000000000000000000000001 $
b00000000000000000000000000000010 %
b00000000000000000000000000000001 &
b00000000000000000000000000000010 (
1)
#39
0)
#40
b00000000000000000000000000000001 #
b00000000000000000000000000000010 $
b00000000000000000000000000000001 %
b00000000000000000000000000000010 &
b00000000000000000000000000000001 (
1)
#41
0)
#42
b00000000000000000000000000000010 #
b00000000000000000000000000000001 $
b00000000000000000000000000000010 %
b00000000000000000000000000000001 &
b00000000000000000000000000000010 (
1)
#43
0)
#44
b00000000000000000000000000000001 #
b00000000000000000000000000000010 $
b00000000000000000000000000000001 %
b00000000000000000000000000000010 &
b00000000000000000000000000000001 (
1)
#45
0)
#46
b00000000000000000000000000000010 #
b00000000000000000000000000000001 $
b00000000000000000000000000000010 %
b00000000000000000000000000000001 &
b00000000000000000000000000000010 (
1)
#47
0)
#48
b00000000000000000000000000000001 #
b00000000000000000000000000000010 $
b00000000000000000000000000000001 %
b00000000000000000000000000000010 &
b00000000000000000000000000000001 (
1)
